{
  "plugins": ["plugins/markdown"],
  "source": {
    "include": ["./server", "./src"],
    "exclude": ["node_modules", "./public"],
    "includePattern": ".+\\.js(doc|x)?$",
    "excludePattern": "(^|\\/|\\\\)_"
  }
}
